module gitlab.com/SiaPrime/SiaPrime

go 1.12

require (
	github.com/coreos/bbolt v1.3.3
	github.com/dchest/threefish v0.0.0-20120919164726-3ecf4c494abf
	github.com/go-sql-driver/mysql v1.4.1
	github.com/inconshreveable/go-update v0.0.0-20160112193335-8152e7eb6ccf
	github.com/julienschmidt/httprouter v1.2.0
	github.com/kardianos/osext v0.0.0-20190222173326-2bc1f35cddc0
	github.com/karrick/godirwalk v1.12.0
	github.com/klauspost/cpuid v1.2.1 // indirect
	github.com/klauspost/reedsolomon v1.9.2
	github.com/petermattis/goid v0.0.0-20180202154549-b0b1615b78e5 // indirect
	github.com/sasha-s/go-deadlock v0.2.0
	github.com/spf13/cobra v0.0.5
	github.com/spf13/viper v1.4.0
	github.com/xtaci/smux v1.4.4
	gitlab.com/NebulousLabs/demotemutex v0.0.0-20151003192217-235395f71c40
	gitlab.com/NebulousLabs/entropy-mnemonics v0.0.0-20181018051301-7532f67e3500
	gitlab.com/NebulousLabs/errors v0.0.0-20171229012116-7ead97ef90b8
	gitlab.com/NebulousLabs/fastrand v0.0.0-20181126182046-603482d69e40
	gitlab.com/NebulousLabs/go-upnp v0.0.0-20181011194642-3a71999ed0d3
	gitlab.com/NebulousLabs/merkletree v0.0.0-20190207030457-bc4a11e31a0d
	gitlab.com/NebulousLabs/ratelimit v0.0.0-20180716154200-1308156c2eaf
	gitlab.com/NebulousLabs/threadgroup v0.0.0-20180716154133-88a11db9e46c
	gitlab.com/SiaPrime/writeaheadlog v0.0.0-20190830195947-8d9d57b6e40f
	golang.org/x/crypto v0.0.0-20190923035154-9ee001bba392

)
